22
160
1
30
40
2
37
52
3
49
49
4
52
64
5
31
62
6
52
33
7
42
41
8
52
41
9
57
58
10
62
42
11
42
57
12
27
68
13
43
67
14
58
48
15
58
27
16
37
69
17
38
46
18
61
33
19
62
63
20
63
69
21
45
35
22
56
37
1
0
2
7
3
30
4
16
5
23
6
11
7
19
8
15
9
28
10
8
11
8
12
7
13
14
14
6
15
19
16
11
17
12
18
26
19
17
20
6
21
15
22
10
1